{
  "version": 1,
  "built_at": "2026-06-17T12:52:03+09:00",
  "total_items": 121,
  "page_size": 20,
  "total_pages": 7,
  "seed": "2026-06-17T12:52:03+09:00",
  "pages": [
    {
      "page": 1,
      "file": "feed_page_0001.json",
      "count": 20
    },
    {
      "page": 2,
      "file": "feed_page_0002.json",
      "count": 20
    },
    {
      "page": 3,
      "file": "feed_page_0003.json",
      "count": 20
    },
    {
      "page": 4,
      "file": "feed_page_0004.json",
      "count": 20
    },
    {
      "page": 5,
      "file": "feed_page_0005.json",
      "count": 20
    },
    {
      "page": 6,
      "file": "feed_page_0006.json",
      "count": 20
    },
    {
      "page": 7,
      "file": "feed_page_0007.json",
      "count": 1
    }
  ]
}
